<svg xmlns="http://www.w3.org/2000/svg" width="117.883" height="147.268" viewBox="0 0 117.883 147.268">
  <path id="Path_1787" data-name="Path 1787" d="M139.155,65.1h-7.228V44.086a44.086,44.086,0,0,0-88.172,0V65.1H36.526A7.627,7.627,0,0,0,28.9,72.725V139.64a7.627,7.627,0,0,0,7.627,7.627H139.155a7.627,7.627,0,0,0,7.627-7.627V72.726a7.628,7.628,0,0,0-7.627-7.627ZM62.271,44.086a25.569,25.569,0,1,1,51.139,0V65.1H62.271ZM96.152,108.72V122.4a8.312,8.312,0,1,1-16.623,0V108.72a13.389,13.389,0,1,1,16.623,0Z" transform="translate(-28.899)" fill="#58595b"/>
</svg>
